[
    {
        "IRIS": 441090105,
        "REG": 52,
        "REG2016": 52,
        "DEP": 44,
        "UU2010": 44701,
        "COM": 44109,
        "LIBCOM": "Nantes",
        "TRIRIS": 440551,
        "GRD_QUART": 4410901,
        "LIBIRIS": "Bretagne",
        "TYP_IRIS": "H",
        "MODIF_IRIS": "00",
        "LAB_IRIS": 1,
        "P12_POP": 1992,
        "P12_POP0002": 75,
        "P12_POP0305": 51,
        "P12_POP0610": 37,
        "P12_POP1117": 111,
        "P12_POP1824": 427,
        "P12_POP2539": 652,
        "P12_POP4054": 249,
        "P12_POP5564": 215,
        "P12_POP6579": 112,
        "P12_POP80P": 64,
        "P12_POP0014": 215,
        "P12_POP1529": 761,
        "P12_POP3044": 442,
        "P12_POP4559": 293,
        "P12_POP6074": 175,
        "P12_POP75P": 107,
        "P12_POP0019": 365,
        "P12_POP2064": 1451,
        "P12_POP65P": 176,
        "P12_POPH": 1020,
        "P12_H0014": 118,
        "P12_H1529": 392,
        "P12_H3044": 245,
        "P12_H4559": 144,
        "P12_H6074": 83,
        "P12_H75P": 38,
        "P12_H0019": 213,
        "P12_H2064": 731,
        "P12_H65P": 76,
        "P12_POPF": 972,
        "P12_F0014": 97,
        "P12_F1529": 368,
        "P12_F3044": 197,
        "P12_F4559": 149,
        "P12_F6074": 92,
        "P12_F75P": 69,
        "P12_F0019": 152,
        "P12_F2064": 720,
        "P12_F65P": 100,
        "C12_POP15P": 1777,
        "C12_POP15P_CS1": 0,
        "C12_POP15P_CS2": 52,
        "C12_POP15P_CS3": 497,
        "C12_POP15P_CS4": 377,
        "C12_POP15P_CS5": 177,
        "C12_POP15P_CS6": 74,
        "C12_POP15P_CS7": 205,
        "C12_POP15P_CS8": 395,
        "C12_H15P": 902,
        "C12_H15P_CS1": 0,
        "C12_H15P_CS2": 34,
        "C12_H15P_CS3": 294,
        "C12_H15P_CS4": 188,
        "C12_H15P_CS5": 52,
        "C12_H15P_CS6": 56,
        "C12_H15P_CS7": 87,
        "C12_H15P_CS8": 191,
        "C12_F15P": 875,
        "C12_F15P_CS1": 0,
        "C12_F15P_CS2": 18,
        "C12_F15P_CS3": 202,
        "C12_F15P_CS4": 188,
        "C12_F15P_CS5": 125,
        "C12_F15P_CS6": 18,
        "C12_F15P_CS7": 118,
        "C12_F15P_CS8": 204,
        "P12_POP_FR": 1906,
        "P12_POP_ETR": 85,
        "P12_POP_IMM": 90,
        "P12_PMEN": 1992,
        "P12_PHORMEN": 0
    },
    {
        "IRIS": 441090106,
        "REG": 52,
        "REG2016": 52,
        "DEP": 44,
        "UU2010": 44701,
        "COM": 44109,
        "LIBCOM": "Nantes",
        "TRIRIS": 440551,
        "GRD_QUART": 4410901,
        "LIBIRIS": "Decré-Cathédrale",
        "TYP_IRIS": "H",
        "MODIF_IRIS": "00",
        "LAB_IRIS": 1,
        "P12_POP": 6005,
        "P12_POP0002": 149,
        "P12_POP0305": 81,
        "P12_POP0610": 159,
        "P12_POP1117": 262,
        "P12_POP1824": 2058,
        "P12_POP2539": 1715,
        "P12_POP4054": 731,
        "P12_POP5564": 394,
        "P12_POP6579": 293,
        "P12_POP80P": 163,
        "P12_POP0014": 544,
        "P12_POP1529": 3056,
        "P12_POP3044": 1067,
        "P12_POP4559": 695,
        "P12_POP6074": 403,
        "P12_POP75P": 241,
        "P12_POP0019": 1066,
        "P12_POP2064": 4483,
        "P12_POP65P": 456,
        "P12_POPH": 2917,
        "P12_H0014": 231,
        "P12_H1529": 1423,
        "P12_H3044": 618,
        "P12_H4559": 363,
        "P12_H6074": 197,
        "P12_H75P": 84,
        "P12_H0019": 431,
        "P12_H2064": 2297,
        "P12_H65P": 188,
        "P12_POPF": 3089,
        "P12_F0014": 313,
        "P12_F1529": 1633,
        "P12_F3044": 449,
        "P12_F4559": 333,
        "P12_F6074": 205,
        "P12_F75P": 156,
        "P12_F0019": 635,
        "P12_F2064": 2186,
        "P12_F65P": 268,
        "C12_POP15P": 5464,
        "C12_POP15P_CS1": 0,
        "C12_POP15P_CS2": 251,
        "C12_POP15P_CS3": 1113,
        "C12_POP15P_CS4": 841,
        "C12_POP15P_CS5": 706,
        "C12_POP15P_CS6": 320,
        "C12_POP15P_CS7": 530,
        "C12_POP15P_CS8": 1704,
        "C12_H15P": 2688,
        "C12_H15P_CS1": 0,
        "C12_H15P_CS2": 164,
        "C12_H15P_CS3": 608,
        "C12_H15P_CS4": 456,
        "C12_H15P_CS5": 306,
        "C12_H15P_CS6": 256,
        "C12_H15P_CS7": 240,
        "C12_H15P_CS8": 660,
        "C12_F15P": 2777,
        "C12_F15P_CS1": 0,
        "C12_F15P_CS2": 88,
        "C12_F15P_CS3": 505,
        "C12_F15P_CS4": 385,
        "C12_F15P_CS5": 400,
        "C12_F15P_CS6": 64,
        "C12_F15P_CS7": 290,
        "C12_F15P_CS8": 1045,
        "P12_POP_FR": 5720,
        "P12_POP_ETR": 285,
        "P12_POP_IMM": 337,
        "P12_PMEN": 5971,
        "P12_PHORMEN": 34
    },
    {
        "IRIS": 441090404,
        "REG": 52,
        "REG2016": 52,
        "DEP": 44,
        "UU2010": 44701,
        "COM": 44109,
        "LIBCOM": "Nantes",
        "TRIRIS": 440631,
        "GRD_QUART": 4410904,
        "LIBIRIS": "Talensac-Pont Morand",
        "TYP_IRIS": "H",
        "MODIF_IRIS": "00",
        "LAB_IRIS": 1,
        "P12_POP": 3608,
        "P12_POP0002": 64,
        "P12_POP0305": 73,
        "P12_POP0610": 85,
        "P12_POP1117": 155,
        "P12_POP1824": 1051,
        "P12_POP2539": 1025,
        "P12_POP4054": 504,
        "P12_POP5564": 273,
        "P12_POP6579": 249,
        "P12_POP80P": 129,
        "P12_POP0014": 294,
        "P12_POP1529": 1670,
        "P12_POP3044": 678,
        "P12_POP4559": 472,
        "P12_POP6074": 272,
        "P12_POP75P": 222,
        "P12_POP0019": 650,
        "P12_POP2064": 2580,
        "P12_POP65P": 377,
        "P12_POPH": 1702,
        "P12_H0014": 159,
        "P12_H1529": 771,
        "P12_H3044": 378,
        "P12_H4559": 235,
        "P12_H6074": 93,
        "P12_H75P": 65,
        "P12_H0019": 321,
        "P12_H2064": 1259,
        "P12_H65P": 122,
        "P12_POPF": 1906,
        "P12_F0014": 134,
        "P12_F1529": 899,
        "P12_F3044": 300,
        "P12_F4559": 237,
        "P12_F6074": 178,
        "P12_F75P": 157,
        "P12_F0019": 329,
        "P12_F2064": 1321,
        "P12_F65P": 255,
        "C12_POP15P": 3307,
        "C12_POP15P_CS1": 0,
        "C12_POP15P_CS2": 57,
        "C12_POP15P_CS3": 713,
        "C12_POP15P_CS4": 677,
        "C12_POP15P_CS5": 328,
        "C12_POP15P_CS6": 165,
        "C12_POP15P_CS7": 430,
        "C12_POP15P_CS8": 936,
        "C12_H15P": 1544,
        "C12_H15P_CS1": 0,
        "C12_H15P_CS2": 43,
        "C12_H15P_CS3": 419,
        "C12_H15P_CS4": 302,
        "C12_H15P_CS5": 117,
        "C12_H15P_CS6": 139,
        "C12_H15P_CS7": 138,
        "C12_H15P_CS8": 387,
        "C12_F15P": 1762,
        "C12_F15P_CS1": 0,
        "C12_F15P_CS2": 15,
        "C12_F15P_CS3": 294,
        "C12_F15P_CS4": 374,
        "C12_F15P_CS5": 212,
        "C12_F15P_CS6": 26,
        "C12_F15P_CS7": 292,
        "C12_F15P_CS8": 549,
        "P12_POP_FR": 3511,
        "P12_POP_ETR": 97,
        "P12_POP_IMM": 139,
        "P12_PMEN": 3562,
        "P12_PHORMEN": 46
    }
]